[
  {
    "name" : "John Wick",
    "email" : "johnwick@gmail.com",
    "age" : 55
  },
  {
    "name" : "Tony Stark",
    "email" : "tonystark@gmail.com",
    "age" : 55
  },
  {
    "name" : "Black Widow",
    "email" : "blackwidow@gmail.com",
    "age" : 34
  },
  {
    "name" : "Steve Rogers",
    "email" : "steverogers@gmail.com",
    "age" : 38
  },
  {
    "name" : "Thor",
    "email" : "thor@gmail.com",
    "age" : 36
  },
  {
    "name" : "Clint",
    "email" : "clint@gmail.com",
    "age" : 48
  }
]